Base path: '/home/gianfranco/Unity/Hub/Editor/2020.1.3f1/Editor/Data', plugins path '/home/gianfranco/Unity/Hub/Editor/2020.1.3f1/Editor/Data/PlaybackEngines'
Cmd: initializeCompiler

Quitting shader compiler process
