%YAML 1.1
%TAG !u! tag:unity3d.com,2011:
--- !u!1 &6741475760043100393
GameObject:
  m_ObjectHideFlags: 0
  m_CorrespondingSourceObject: {fileID: 0}
  m_PrefabInstance: {fileID: 0}
  m_PrefabAsset: {fileID: 0}
  serializedVersion: 6
  m_Component:
  - component: {fileID: 6741475760043100392}
  - component: {fileID: 6741475760043100395}
  - component: {fileID: 4547518458468200823}
  - component: {fileID: 1166987520767750146}
  m_Layer: 8
  m_Name: Candy_2
  m_TagString: Untagged
  m_Icon: {fileID: 0}
  m_NavMeshLayer: 0
  m_StaticEditorFlags: 0
  m_IsActive: 1
--- !u!4 &6741475760043100392
Transform:
  m_ObjectHideFlags: 0
  m_CorrespondingSourceObject: {fileID: 0}
  m_PrefabInstance: {fileID: 0}
  m_PrefabAsset: {fileID: 0}
  m_GameObject: {fileID: 6741475760043100393}
  m_LocalRotation: {x: 6.028054e-11, y: -9.293695e-10, z: 0.12805173, w: 0.9917675}
  m_LocalPosition: {x: 15.77, y: -2.67, z: 13.320348}
  m_LocalScale: {x: 0.5818821, y: 0.64513284, z: 0.5818821}
  m_Children: []
  m_Father: {fileID: 0}
  m_RootOrder: 0
  m_LocalEulerAnglesHint: {x: 0, y: 0, z: 14.714}
--- !u!212 &6741475760043100395
SpriteRenderer:
  m_ObjectHideFlags: 0
  m_CorrespondingSourceObject: {fileID: 0}
  m_PrefabInstance: {fileID: 0}
  m_PrefabAsset: {fileID: 0}
  m_GameObject: {fileID: 6741475760043100393}
  m_Enabled: 1
  m_CastShadows: 0
  m_ReceiveShadows: 0
  m_DynamicOccludee: 1
  m_MotionVectors: 1
  m_LightProbeUsage: 1
  m_ReflectionProbeUsage: 1
  m_RayTracingMode: 0
  m_RayTraceProcedural: 0
  m_RenderingLayerMask: 1
  m_RendererPriority: 0
  m_Materials:
  - {fileID: 10754, guid: 0000000000000000f000000000000000, type: 0}
  m_StaticBatchInfo:
    firstSubMesh: 0
    subMeshCount: 0
  m_StaticBatchRoot: {fileID: 0}
  m_ProbeAnchor: {fileID: 0}
  m_LightProbeVolumeOverride: {fileID: 0}
  m_ScaleInLightmap: 1
  m_ReceiveGI: 1
  m_PreserveUVs: 0
  m_IgnoreNormalsForChartDetection: 0
  m_ImportantGI: 0
  m_StitchLightmapSeams: 1
  m_SelectedEditorRenderState: 0
  m_MinimumChartSize: 4
  m_AutoUVMaxDistance: 0.5
  m_AutoUVMaxAngle: 89
  m_LightmapParameters: {fileID: 0}
  m_SortingLayerID: 2044461787
  m_SortingLayer: 2
  m_SortingOrder: 0
  m_Sprite: {fileID: 21300000, guid: 3fe8d98c6869a0d278c34fb2ca0bb5fb, type: 3}
  m_Color: {r: 1, g: 1, b: 1, a: 1}
  m_FlipX: 0
  m_FlipY: 0
  m_DrawMode: 0
  m_Size: {x: 6.43, y: 12.36}
  m_AdaptiveModeThreshold: 0.5
  m_SpriteTileMode: 0
  m_WasSpriteAssigned: 1
  m_MaskInteraction: 0
  m_SpriteSortPoint: 0
--- !u!60 &4547518458468200823
PolygonCollider2D:
  m_ObjectHideFlags: 0
  m_CorrespondingSourceObject: {fileID: 0}
  m_PrefabInstance: {fileID: 0}
  m_PrefabAsset: {fileID: 0}
  m_GameObject: {fileID: 6741475760043100393}
  m_Enabled: 1
  m_Density: 1
  m_Material: {fileID: 0}
  m_IsTrigger: 0
  m_UsedByEffector: 0
  m_UsedByComposite: 0
  m_Offset: {x: 0, y: 0}
  m_SpriteTilingProperty:
    border: {x: 0, y: 0, z: 0, w: 0}
    pivot: {x: 0.5, y: 0.5}
    oldSize: {x: 6.43, y: 12.36}
    newSize: {x: 6.43, y: 12.36}
    adaptiveTilingThreshold: 0.5
    drawMode: 0
    adaptiveTiling: 0
  m_AutoTiling: 0
  m_Points:
    m_Paths:
    - - {x: 1.125, y: 1.38}
      - {x: 1.245, y: 1.4499999}
      - {x: 1.4449999, y: 1.5899999}
      - {x: 1.5649999, y: 1.6899999}
      - {x: 1.795, y: 1.93}
      - {x: 1.895, y: 2.07}
      - {x: 1.985, y: 2.2}
      - {x: 2.085, y: 2.3999999}
      - {x: 2.145, y: 2.54}
      - {x: 2.165, y: 2.54}
      - {x: 2.245, y: 2.57}
      - {x: 2.335, y: 2.6499999}
      - {x: 2.385, y: 2.74}
      - {x: 2.405, y: 2.8}
      - {x: 2.415, y: 2.85}
      - {x: 2.415, y: 3.49}
      - {x: 2.405, y: 3.54}
      - {x: 2.395, y: 3.57}
      - {x: 2.355, y: 3.6599998}
      - {x: 2.2549999, y: 3.76}
      - {x: 2.195, y: 3.79}
      - {x: 2.165, y: 3.9399998}
      - {x: 2.125, y: 4.0099998}
      - {x: 2.0049999, y: 4.27}
      - {x: 1.925, y: 4.4}
      - {x: 1.8149999, y: 4.5499997}
      - {x: 1.535, y: 4.8399997}
      - {x: 1.385, y: 4.96}
      - {x: 1.235, y: 5.06}
      - {x: 0.815, y: 5.27}
      - {x: 0.585, y: 5.3399997}
      - {x: 0.385, y: 5.37}
      - {x: 0.235, y: 5.39}
      - {x: 0.085, y: 5.4}
      - {x: -0.125, y: 5.4}
      - {x: -0.325, y: 5.38}
      - {x: -0.445, y: 5.3599997}
      - {x: -0.705, y: 5.2999997}
      - {x: -0.97499996, y: 5.21}
      - {x: -1.275, y: 5.0499997}
      - {x: -1.365, y: 4.98}
      - {x: -1.485, y: 4.88}
      - {x: -1.555, y: 4.8199997}
      - {x: -1.755, y: 4.63}
      - {x: -1.905, y: 4.44}
      - {x: -1.995, y: 4.2999997}
      - {x: -2.085, y: 4.12}
      - {x: -2.155, y: 3.9599998}
      - {x: -2.215, y: 3.78}
      - {x: -2.2749999, y: 3.75}
      - {x: -2.355, y: 3.6599998}
      - {x: -2.395, y: 3.59}
      - {x: -2.415, y: 3.53}
      - {x: -2.415, y: 2.76}
      - {x: -2.305, y: 2.6}
      - {x: -2.135, y: 2.49}
      - {x: -1.9749999, y: 2.1699998}
      - {x: -1.935, y: 2.11}
      - {x: -1.795, y: 1.92}
      - {x: -1.5949999, y: 1.7099999}
      - {x: -1.415, y: 1.56}
      - {x: -1.285, y: 1.4699999}
      - {x: -1.185, y: 1.41}
      - {x: -0.945, y: 1.28}
      - {x: -0.755, y: 1.2099999}
      - {x: -0.49499997, y: 1.14}
      - {x: -0.205, y: 1.11}
      - {x: -0.114999995, y: 1.1}
      - {x: -0.005, y: 1.1}
      - {x: 0.295, y: 1.12}
      - {x: 0.53499997, y: 1.15}
      - {x: 0.685, y: 1.1899999}
      - {x: 0.905, y: 1.28}
--- !u!61 &1166987520767750146
BoxCollider2D:
  m_ObjectHideFlags: 0
  m_CorrespondingSourceObject: {fileID: 0}
  m_PrefabInstance: {fileID: 0}
  m_PrefabAsset: {fileID: 0}
  m_GameObject: {fileID: 6741475760043100393}
  m_Enabled: 1
  m_Density: 1
  m_Material: {fileID: 0}
  m_IsTrigger: 0
  m_UsedByEffector: 0
  m_UsedByComposite: 0
  m_Offset: {x: -0.00370273, y: -1.9884386}
  m_SpriteTilingProperty:
    border: {x: 0, y: 0, z: 0, w: 0}
    pivot: {x: 0.5, y: 0.5}
    oldSize: {x: 6.43, y: 12.36}
    newSize: {x: 6.43, y: 12.36}
    adaptiveTilingThreshold: 0.5
    drawMode: 0
    adaptiveTiling: 0
  m_AutoTiling: 0
  serializedVersion: 2
  m_Size: {x: 0.36726236, y: 6.795475}
  m_EdgeRadius: 0
