%YAML 1.1
%TAG !u! tag:unity3d.com,2011:
--- !u!1 &1242475971378470275
GameObject:
  m_ObjectHideFlags: 0
  m_CorrespondingSourceObject: {fileID: 0}
  m_PrefabInstance: {fileID: 0}
  m_PrefabAsset: {fileID: 0}
  serializedVersion: 6
  m_Component:
  - component: {fileID: 1242475971378470272}
  - component: {fileID: 1242475971378470278}
  - component: {fileID: 1242475971378470273}
  m_Layer: 8
  m_Name: rock_03
  m_TagString: Untagged
  m_Icon: {fileID: 0}
  m_NavMeshLayer: 0
  m_StaticEditorFlags: 0
  m_IsActive: 1
--- !u!4 &1242475971378470272
Transform:
  m_ObjectHideFlags: 0
  m_CorrespondingSourceObject: {fileID: 0}
  m_PrefabInstance: {fileID: 0}
  m_PrefabAsset: {fileID: 0}
  m_GameObject: {fileID: 1242475971378470275}
  m_LocalRotation: {x: -0, y: -0, z: -0, w: 1}
  m_LocalPosition: {x: 128.41, y: -4.19, z: 13.320348}
  m_LocalScale: {x: 0.513175, y: 0.513175, z: 0.513175}
  m_Children: []
  m_Father: {fileID: 0}
  m_RootOrder: 0
  m_LocalEulerAnglesHint: {x: 0, y: 0, z: 0}
--- !u!212 &1242475971378470278
SpriteRenderer:
  m_ObjectHideFlags: 0
  m_CorrespondingSourceObject: {fileID: 0}
  m_PrefabInstance: {fileID: 0}
  m_PrefabAsset: {fileID: 0}
  m_GameObject: {fileID: 1242475971378470275}
  m_Enabled: 1
  m_CastShadows: 0
  m_ReceiveShadows: 0
  m_DynamicOccludee: 1
  m_MotionVectors: 1
  m_LightProbeUsage: 1
  m_ReflectionProbeUsage: 1
  m_RayTracingMode: 0
  m_RayTraceProcedural: 0
  m_RenderingLayerMask: 1
  m_RendererPriority: 0
  m_Materials:
  - {fileID: 10754, guid: 0000000000000000f000000000000000, type: 0}
  m_StaticBatchInfo:
    firstSubMesh: 0
    subMeshCount: 0
  m_StaticBatchRoot: {fileID: 0}
  m_ProbeAnchor: {fileID: 0}
  m_LightProbeVolumeOverride: {fileID: 0}
  m_ScaleInLightmap: 1
  m_ReceiveGI: 1
  m_PreserveUVs: 0
  m_IgnoreNormalsForChartDetection: 0
  m_ImportantGI: 0
  m_StitchLightmapSeams: 1
  m_SelectedEditorRenderState: 0
  m_MinimumChartSize: 4
  m_AutoUVMaxDistance: 0.5
  m_AutoUVMaxAngle: 89
  m_LightmapParameters: {fileID: 0}
  m_SortingLayerID: 2044461787
  m_SortingLayer: 2
  m_SortingOrder: 0
  m_Sprite: {fileID: 21300000, guid: 44a86d7ea4d178b45934f9472478f995, type: 3}
  m_Color: {r: 1, g: 1, b: 1, a: 1}
  m_FlipX: 0
  m_FlipY: 0
  m_DrawMode: 0
  m_Size: {x: 12.52, y: 11.55}
  m_AdaptiveModeThreshold: 0.5
  m_SpriteTileMode: 0
  m_WasSpriteAssigned: 1
  m_MaskInteraction: 0
  m_SpriteSortPoint: 0
--- !u!60 &1242475971378470273
PolygonCollider2D:
  m_ObjectHideFlags: 0
  m_CorrespondingSourceObject: {fileID: 0}
  m_PrefabInstance: {fileID: 0}
  m_PrefabAsset: {fileID: 0}
  m_GameObject: {fileID: 1242475971378470275}
  m_Enabled: 1
  m_Density: 1
  m_Material: {fileID: 0}
  m_IsTrigger: 0
  m_UsedByEffector: 0
  m_UsedByComposite: 0
  m_Offset: {x: 0, y: 0}
  m_SpriteTilingProperty:
    border: {x: 0, y: 0, z: 0, w: 0}
    pivot: {x: 0.5, y: 0.5}
    oldSize: {x: 12.52, y: 11.55}
    newSize: {x: 12.52, y: 11.55}
    adaptiveTilingThreshold: 0.5
    drawMode: 0
    adaptiveTiling: 0
  m_AutoTiling: 0
  m_Points:
    m_Paths:
    - - {x: 0.45999998, y: -5.1349998}
      - {x: 0.59, y: -5.125}
      - {x: 0.7, y: -5.115}
      - {x: 0.9, y: -5.095}
      - {x: 1.15, y: -5.065}
      - {x: 1.3, y: -5.045}
      - {x: 1.4399999, y: -5.025}
      - {x: 1.74, y: -4.975}
      - {x: 1.79, y: -4.9649997}
      - {x: 1.91, y: -4.9449997}
      - {x: 2.11, y: -4.915}
      - {x: 2.2, y: -4.8849998}
      - {x: 2.33, y: -4.855}
      - {x: 2.53, y: -4.805}
      - {x: 2.79, y: -4.7349997}
      - {x: 2.9299998, y: -4.6949997}
      - {x: 3.03, y: -4.665}
      - {x: 3.06, y: -4.6549997}
      - {x: 3.1699998, y: -4.625}
      - {x: 3.23, y: -4.605}
      - {x: 3.6499999, y: -4.455}
      - {x: 3.78, y: -4.4049997}
      - {x: 4.0499997, y: -4.295}
      - {x: 4.2999997, y: -4.185}
      - {x: 4.47, y: -4.105}
      - {x: 4.71, y: -3.985}
      - {x: 4.88, y: -3.885}
      - {x: 4.99, y: -3.8149998}
      - {x: 5.06, y: -3.7649999}
      - {x: 5.14, y: -3.705}
      - {x: 5.25, y: -3.605}
      - {x: 5.41, y: -3.445}
      - {x: 5.47, y: -3.375}
      - {x: 5.52, y: -3.3049998}
      - {x: 5.58, y: -3.225}
      - {x: 5.68, y: -3.0049999}
      - {x: 5.71, y: -2.915}
      - {x: 5.74, y: -2.7849998}
      - {x: 5.75, y: -2.705}
      - {x: 5.75, y: -2.425}
      - {x: 5.73, y: -2.2949998}
      - {x: 5.69, y: -2.105}
      - {x: 5.66, y: -2.0149999}
      - {x: 5.6099997, y: -1.875}
      - {x: 5.5499997, y: -1.7249999}
      - {x: 5.5099998, y: -1.635}
      - {x: 5.46, y: -1.525}
      - {x: 5.25, y: -1.105}
      - {x: 5.25, y: -1.0849999}
      - {x: 5.16, y: -0.885}
      - {x: 5.06, y: -0.645}
      - {x: 5.0099998, y: -0.515}
      - {x: 4.97, y: -0.405}
      - {x: 4.8599997, y: -0.085}
      - {x: 4.8399997, y: -0.015}
      - {x: 4.79, y: 0.155}
      - {x: 4.7599998, y: 0.265}
      - {x: 4.68, y: 0.585}
      - {x: 4.62, y: 0.885}
      - {x: 4.58, y: 1.115}
      - {x: 4.5099998, y: 1.635}
      - {x: 4.46, y: 1.915}
      - {x: 4.4, y: 2.165}
      - {x: 4.38, y: 2.225}
      - {x: 4.33, y: 2.355}
      - {x: 4.24, y: 2.5449998}
      - {x: 4.17, y: 2.655}
      - {x: 4.08, y: 2.7649999}
      - {x: 3.8799999, y: 2.955}
      - {x: 3.78, y: 3.0149999}
      - {x: 3.6599998, y: 3.085}
      - {x: 3.49, y: 3.165}
      - {x: 3.33, y: 3.235}
      - {x: 2.9299998, y: 3.395}
      - {x: 2.79, y: 3.455}
      - {x: 2.77, y: 3.455}
      - {x: 2.56, y: 3.5749998}
      - {x: 2.3999999, y: 3.675}
      - {x: 2.25, y: 3.7849998}
      - {x: 2.12, y: 3.905}
      - {x: 2.12, y: 3.915}
      - {x: 2.04, y: 4.005}
      - {x: 1.89, y: 4.1749997}
      - {x: 1.6999999, y: 4.365}
      - {x: 1.55, y: 4.485}
      - {x: 1.4, y: 4.555}
      - {x: 1.31, y: 4.585}
      - {x: 1.22, y: 4.605}
      - {x: 1.15, y: 4.615}
      - {x: 0.87, y: 4.615}
      - {x: 0.71999997, y: 4.595}
      - {x: 0.44, y: 4.535}
      - {x: -0.08, y: 4.4049997}
      - {x: -0.17999999, y: 4.3849998}
      - {x: -0.26999998, y: 4.365}
      - {x: -0.69, y: 4.285}
      - {x: -0.75, y: 4.275}
      - {x: -0.84999996, y: 4.265}
      - {x: -0.9, y: 4.245}
      - {x: -1.02, y: 4.235}
      - {x: -1.27, y: 4.1749997}
      - {x: -1.36, y: 4.1549997}
      - {x: -1.49, y: 4.125}
      - {x: -1.5699999, y: 4.105}
      - {x: -1.64, y: 4.085}
      - {x: -1.86, y: 4.035}
      - {x: -2.03, y: 3.965}
      - {x: -2.1599998, y: 3.915}
      - {x: -2.26, y: 3.875}
      - {x: -2.44, y: 3.7949998}
      - {x: -2.61, y: 3.715}
      - {x: -2.74, y: 3.645}
      - {x: -2.86, y: 3.5749998}
      - {x: -3.04, y: 3.455}
      - {x: -3.1799998, y: 3.365}
      - {x: -3.26, y: 3.3049998}
      - {x: -3.37, y: 3.215}
      - {x: -3.55, y: 3.0649998}
      - {x: -3.6399999, y: 2.985}
      - {x: -4, y: 2.625}
      - {x: -4.08, y: 2.5349998}
      - {x: -4.19, y: 2.405}
      - {x: -4.2999997, y: 2.2649999}
      - {x: -4.46, y: 2.055}
      - {x: -4.56, y: 1.905}
      - {x: -4.64, y: 1.775}
      - {x: -4.75, y: 1.5849999}
      - {x: -4.87, y: 1.345}
      - {x: -4.95, y: 1.175}
      - {x: -5.0099998, y: 1.035}
      - {x: -5.0699997, y: 0.885}
      - {x: -5.15, y: 0.695}
      - {x: -5.21, y: 0.465}
      - {x: -5.24, y: 0.355}
      - {x: -5.29, y: 0.155}
      - {x: -5.3199997, y: 0.015}
      - {x: -5.35, y: -0.145}
      - {x: -5.3599997, y: -0.205}
      - {x: -5.39, y: -0.415}
      - {x: -5.41, y: -0.60499996}
      - {x: -5.42, y: -0.72499996}
      - {x: -5.43, y: -0.885}
      - {x: -5.43, y: -1.475}
      - {x: -5.42, y: -1.645}
      - {x: -5.41, y: -1.765}
      - {x: -5.4, y: -1.865}
      - {x: -5.38, y: -2.0349998}
      - {x: -5.35, y: -2.235}
      - {x: -5.31, y: -2.465}
      - {x: -5.2599998, y: -2.705}
      - {x: -5.24, y: -2.7849998}
      - {x: -5.18, y: -3.0049999}
      - {x: -5.14, y: -3.155}
      - {x: -5.12, y: -3.215}
      - {x: -5.02, y: -3.5049999}
      - {x: -4.99, y: -3.585}
      - {x: -4.94, y: -3.705}
      - {x: -4.89, y: -3.8149998}
      - {x: -4.73, y: -4.1349998}
      - {x: -4.74, y: -4.285}
      - {x: -4.7799997, y: -4.435}
      - {x: -4.79, y: -4.545}
      - {x: -4.7799997, y: -4.595}
      - {x: -4.7599998, y: -4.645}
      - {x: -4.69, y: -4.7349997}
      - {x: -4.6, y: -4.765}
      - {x: -4.47, y: -4.755}
      - {x: -4.39, y: -4.745}
      - {x: -4.22, y: -4.7349997}
      - {x: -4.21, y: -4.745}
      - {x: -4.11, y: -4.765}
      - {x: -3.3799999, y: -4.9049997}
      - {x: -2.9299998, y: -4.9849997}
      - {x: -2.74, y: -5.015}
      - {x: -2.46, y: -5.055}
      - {x: -2.29, y: -5.075}
      - {x: -2.2, y: -5.085}
      - {x: -2, y: -5.105}
      - {x: -1.89, y: -5.115}
      - {x: -1.77, y: -5.125}
      - {x: -1.49, y: -5.1349998}
      - {x: -1.48, y: -5.145}
      - {x: -1.29, y: -5.1549997}
      - {x: -1.05, y: -5.1549997}
      - {x: -1.04, y: -5.165}
      - {x: -0.099999994, y: -5.165}
      - {x: -0.089999996, y: -5.1549997}
      - {x: 0.14, y: -5.1549997}
      - {x: 0.32, y: -5.145}
