%YAML 1.1
%TAG !u! tag:unity3d.com,2011:
--- !u!1 &7597383049174360869
GameObject:
  m_ObjectHideFlags: 0
  m_CorrespondingSourceObject: {fileID: 0}
  m_PrefabInstance: {fileID: 0}
  m_PrefabAsset: {fileID: 0}
  serializedVersion: 6
  m_Component:
  - component: {fileID: 7597383049174360868}
  - component: {fileID: 7597383049174360865}
  - component: {fileID: 7597383049174360866}
  - component: {fileID: 7597383049174360867}
  m_Layer: 8
  m_Name: Vaso
  m_TagString: Untagged
  m_Icon: {fileID: 0}
  m_NavMeshLayer: 0
  m_StaticEditorFlags: 0
  m_IsActive: 1
--- !u!4 &7597383049174360868
Transform:
  m_ObjectHideFlags: 0
  m_CorrespondingSourceObject: {fileID: 0}
  m_PrefabInstance: {fileID: 0}
  m_PrefabAsset: {fileID: 0}
  m_GameObject: {fileID: 7597383049174360869}
  m_LocalRotation: {x: -0, y: -0, z: -0, w: 1}
  m_LocalPosition: {x: -7.184, y: -2.63, z: 13.320348}
  m_LocalScale: {x: 0.23918112, y: 0.23918112, z: 0.23918112}
  m_Children: []
  m_Father: {fileID: 0}
  m_RootOrder: 0
  m_LocalEulerAnglesHint: {x: 0, y: 0, z: 0}
--- !u!212 &7597383049174360865
SpriteRenderer:
  m_ObjectHideFlags: 0
  m_CorrespondingSourceObject: {fileID: 0}
  m_PrefabInstance: {fileID: 0}
  m_PrefabAsset: {fileID: 0}
  m_GameObject: {fileID: 7597383049174360869}
  m_Enabled: 1
  m_CastShadows: 0
  m_ReceiveShadows: 0
  m_DynamicOccludee: 1
  m_MotionVectors: 1
  m_LightProbeUsage: 1
  m_ReflectionProbeUsage: 1
  m_RayTracingMode: 0
  m_RayTraceProcedural: 0
  m_RenderingLayerMask: 1
  m_RendererPriority: 0
  m_Materials:
  - {fileID: 10754, guid: 0000000000000000f000000000000000, type: 0}
  m_StaticBatchInfo:
    firstSubMesh: 0
    subMeshCount: 0
  m_StaticBatchRoot: {fileID: 0}
  m_ProbeAnchor: {fileID: 0}
  m_LightProbeVolumeOverride: {fileID: 0}
  m_ScaleInLightmap: 1
  m_ReceiveGI: 1
  m_PreserveUVs: 0
  m_IgnoreNormalsForChartDetection: 0
  m_ImportantGI: 0
  m_StitchLightmapSeams: 1
  m_SelectedEditorRenderState: 0
  m_MinimumChartSize: 4
  m_AutoUVMaxDistance: 0.5
  m_AutoUVMaxAngle: 89
  m_LightmapParameters: {fileID: 0}
  m_SortingLayerID: 2044461787
  m_SortingLayer: 2
  m_SortingOrder: 0
  m_Sprite: {fileID: 21300000, guid: 475283f332b6b639784923ab3222aff9, type: 3}
  m_Color: {r: 1, g: 1, b: 1, a: 1}
  m_FlipX: 0
  m_FlipY: 0
  m_DrawMode: 0
  m_Size: {x: 12.07, y: 18.99}
  m_AdaptiveModeThreshold: 0.5
  m_SpriteTileMode: 0
  m_WasSpriteAssigned: 1
  m_MaskInteraction: 0
  m_SpriteSortPoint: 0
--- !u!50 &7597383049174360866
Rigidbody2D:
  serializedVersion: 4
  m_ObjectHideFlags: 0
  m_CorrespondingSourceObject: {fileID: 0}
  m_PrefabInstance: {fileID: 0}
  m_PrefabAsset: {fileID: 0}
  m_GameObject: {fileID: 7597383049174360869}
  m_BodyType: 0
  m_Simulated: 1
  m_UseFullKinematicContacts: 0
  m_UseAutoMass: 0
  m_Mass: 1
  m_LinearDrag: 0
  m_AngularDrag: 0.05
  m_GravityScale: 1
  m_Material: {fileID: 0}
  m_Interpolate: 0
  m_SleepingMode: 1
  m_CollisionDetection: 0
  m_Constraints: 0
--- !u!60 &7597383049174360867
PolygonCollider2D:
  m_ObjectHideFlags: 0
  m_CorrespondingSourceObject: {fileID: 0}
  m_PrefabInstance: {fileID: 0}
  m_PrefabAsset: {fileID: 0}
  m_GameObject: {fileID: 7597383049174360869}
  m_Enabled: 1
  m_Density: 1
  m_Material: {fileID: 0}
  m_IsTrigger: 0
  m_UsedByEffector: 0
  m_UsedByComposite: 0
  m_Offset: {x: 0, y: 0}
  m_SpriteTilingProperty:
    border: {x: 0, y: 0, z: 0, w: 0}
    pivot: {x: 0.5, y: 0.5}
    oldSize: {x: 12.07, y: 18.99}
    newSize: {x: 12.07, y: 18.99}
    adaptiveTilingThreshold: 0.5
    drawMode: 0
    adaptiveTiling: 0
  m_AutoTiling: 0
  m_Points:
    m_Paths:
    - - {x: 5.375, y: -8.554999}
      - {x: 5.325, y: -8.485}
      - {x: 5.255, y: -8.415}
      - {x: 5.1749997, y: -8.385}
      - {x: 5.105, y: -7.745}
      - {x: 5.075, y: -7.435}
      - {x: 5.015, y: -6.805}
      - {x: 5.005, y: -6.6949997}
      - {x: 4.9849997, y: -6.495}
      - {x: 4.975, y: -6.3849998}
      - {x: 4.9649997, y: -6.285}
      - {x: 4.955, y: -6.1749997}
      - {x: 4.935, y: -5.975}
      - {x: 4.9249997, y: -5.865}
      - {x: 4.915, y: -5.765}
      - {x: 4.9049997, y: -5.6549997}
      - {x: 4.8849998, y: -5.455}
      - {x: 4.875, y: -5.345}
      - {x: 4.865, y: -5.245}
      - {x: 4.855, y: -5.1349998}
      - {x: 4.845, y: -5.035}
      - {x: 4.835, y: -4.9249997}
      - {x: 4.815, y: -4.725}
      - {x: 4.805, y: -4.615}
      - {x: 4.795, y: -4.515}
      - {x: 4.785, y: -4.4049997}
      - {x: 4.765, y: -4.205}
      - {x: 4.755, y: -4.095}
      - {x: 4.745, y: -3.995}
      - {x: 4.7349997, y: -3.885}
      - {x: 4.7149997, y: -3.685}
      - {x: 4.705, y: -3.5749998}
      - {x: 4.6949997, y: -3.475}
      - {x: 4.685, y: -3.365}
      - {x: 4.6749997, y: -3.2649999}
      - {x: 4.665, y: -3.155}
      - {x: 4.645, y: -2.955}
      - {x: 4.6349998, y: -2.845}
      - {x: 4.625, y: -2.745}
      - {x: 4.615, y: -2.635}
      - {x: 4.595, y: -2.435}
      - {x: 4.585, y: -2.325}
      - {x: 4.575, y: -2.225}
      - {x: 4.565, y: -2.115}
      - {x: 4.545, y: -1.915}
      - {x: 4.535, y: -1.805}
      - {x: 4.525, y: -1.7049999}
      - {x: 4.515, y: -1.5949999}
      - {x: 4.505, y: -1.495}
      - {x: 4.495, y: -1.385}
      - {x: 4.475, y: -1.185}
      - {x: 4.4649997, y: -1.0749999}
      - {x: 4.455, y: -0.97499996}
      - {x: 4.4449997, y: -0.865}
      - {x: 4.4249997, y: -0.66499996}
      - {x: 4.415, y: -0.555}
      - {x: 4.4049997, y: -0.45499998}
      - {x: 4.395, y: -0.345}
      - {x: 4.375, y: -0.145}
      - {x: 4.365, y: -0.035}
      - {x: 4.355, y: 0.065}
      - {x: 4.345, y: 0.175}
      - {x: 4.325, y: 0.375}
      - {x: 4.315, y: 0.48499998}
      - {x: 4.305, y: 0.585}
      - {x: 4.295, y: 0.695}
      - {x: 4.285, y: 0.79499996}
      - {x: 4.275, y: 0.905}
      - {x: 4.255, y: 1.105}
      - {x: 4.245, y: 1.2149999}
      - {x: 4.235, y: 1.3149999}
      - {x: 4.225, y: 1.425}
      - {x: 4.1949997, y: 1.735}
      - {x: 4.185, y: 1.8349999}
      - {x: 4.1749997, y: 2.055}
      - {x: 4.1549997, y: 2.2549999}
      - {x: 4.065, y: 3.085}
      - {x: 4.055, y: 3.195}
      - {x: 4.035, y: 3.395}
      - {x: 4.025, y: 3.5049999}
      - {x: 4.015, y: 3.605}
      - {x: 4.005, y: 3.715}
      - {x: 3.985, y: 3.915}
      - {x: 3.975, y: 4.025}
      - {x: 3.965, y: 4.125}
      - {x: 3.955, y: 4.235}
      - {x: 3.945, y: 4.335}
      - {x: 3.935, y: 4.4449997}
      - {x: 3.915, y: 4.645}
      - {x: 3.905, y: 4.755}
      - {x: 3.895, y: 4.855}
      - {x: 3.885, y: 4.9649997}
      - {x: 3.865, y: 5.165}
      - {x: 3.855, y: 5.275}
      - {x: 3.845, y: 5.375}
      - {x: 3.8349998, y: 5.4849997}
      - {x: 3.8149998, y: 5.685}
      - {x: 3.8049998, y: 5.795}
      - {x: 3.7949998, y: 5.895}
      - {x: 3.7849998, y: 6.0049996}
      - {x: 3.7649999, y: 6.205}
      - {x: 3.7549999, y: 6.315}
      - {x: 3.745, y: 6.415}
      - {x: 3.735, y: 6.5249996}
      - {x: 3.725, y: 6.625}
      - {x: 3.715, y: 6.7349997}
      - {x: 3.695, y: 6.935}
      - {x: 3.685, y: 7.045}
      - {x: 3.675, y: 7.145}
      - {x: 3.665, y: 7.2549996}
      - {x: 3.645, y: 7.455}
      - {x: 3.635, y: 7.565}
      - {x: 3.625, y: 7.665}
      - {x: 3.615, y: 7.7749996}
      - {x: 3.595, y: 7.975}
      - {x: 3.585, y: 8.085}
      - {x: 3.5749998, y: 8.295}
      - {x: 3.5549998, y: 8.514999}
      - {x: 3.5149999, y: 8.554999}
      - {x: 3.395, y: 8.615}
      - {x: 3.3049998, y: 8.6449995}
      - {x: 3.105, y: 8.695}
      - {x: 2.735, y: 8.755}
      - {x: 2.575, y: 8.775}
      - {x: 2.0249999, y: 8.825}
      - {x: 1.7249999, y: 8.845}
      - {x: 1.545, y: 8.855}
      - {x: 1.3249999, y: 8.865}
      - {x: 1.0749999, y: 8.875}
      - {x: 0.745, y: 8.885}
      - {x: 0.295, y: 8.885}
      - {x: 0.285, y: 8.8949995}
      - {x: -0.24499999, y: 8.8949995}
      - {x: -0.255, y: 8.885}
      - {x: -0.705, y: 8.885}
      - {x: -1.035, y: 8.875}
      - {x: -1.285, y: 8.865}
      - {x: -1.505, y: 8.855}
      - {x: -1.685, y: 8.845}
      - {x: -1.8449999, y: 8.835}
      - {x: -2.235, y: 8.804999}
      - {x: -2.445, y: 8.785}
      - {x: -2.835, y: 8.735}
      - {x: -3.195, y: 8.675}
      - {x: -3.445, y: 8.585}
      - {x: -3.5149999, y: 8.505}
      - {x: -3.5249999, y: 8.295}
      - {x: -3.5549998, y: 7.9849997}
      - {x: -3.625, y: 7.2549996}
      - {x: -4.265, y: 0.59499997}
      - {x: -4.605, y: -2.945}
      - {x: -4.865, y: -5.6549997}
      - {x: -5.035, y: -7.4249997}
      - {x: -5.125, y: -8.3949995}
      - {x: -5.2149997, y: -8.3949995}
      - {x: -5.345, y: -8.485}
      - {x: -5.375, y: -8.565}
      - {x: -5.375, y: -8.745}
      - {x: -5.275, y: -8.875}
      - {x: -5.2149997, y: -8.8949995}
      - {x: 5.185, y: -8.8949995}
      - {x: 5.265, y: -8.865}
      - {x: 5.365, y: -8.764999}
      - {x: 5.375, y: -8.705}
